{
    "db_name" : "voodoocr_example",
    "db_host" : "localhost",
    "db_user" : "voodoocr_example",
    "db_password" : "3Ghp}VQgRfK%",

    "hash_salt" : "msgUQ7lTTOYiYRQBUcyw4ldffeqxRlfzHDj88zHkY0ZZANggPwU3LK93vCDadS",
    "encrypt_salt" : "cRgjyxASUW2Qi4HIysea2FItwCJjrMmVA9e2j0qOuLw2quDRYgk5tAKRNoqVfu"
}