{
    "/admin/" : "Backend/Index",
    "/admin/pages/" : "Backend/Pages",
    "/admin/users/" : "Backend/Users",
    "/admin/logout/" : "Backend/Logout",
    "/api/pages/get/" : "Backend/Pages_GET",
    "/api/page/save/" : "Backend/Page_POST"
}